1	0	0
0.993501	0.002972	0
0.982827	0.004553	0
0.97088	0.006301	0
0.95756	0.008222	0
0.942981	0.010292	0
0.92758	0.012442	0
0.911896	0.014593	0
0.896275	0.016699	0
0.88076	0.018753	0
0.865294	0.020763	0
0.849828	0.022734	0
0.834329	0.024668	0
0.818776	0.026567	0
0.803163	0.028428	0
0.787497	0.030251	0
0.771797	0.032031	0
0.756076	0.033767	0
0.740349	0.03546	0
0.724626	0.037108	0
0.708912	0.03871	0
0.693214	0.040268	0
0.677531	0.04178	0
0.661863	0.043244	0
0.646209	0.044656	0
0.630567	0.046013	0
0.614933	0.047314	0
0.599302	0.048554	0
0.583671	0.049733	0
0.568033	0.05085	0
0.552388	0.051906	0
0.536734	0.052901	0
0.521073	0.053837	0
0.505409	0.054712	0
0.489746	0.055527	0
0.474093	0.05628	0
0.458452	0.056967	0
0.442828	0.057584	0
0.427222	0.05813	0
0.411633	0.0586	0
0.396058	0.058992	0
0.380494	0.059302	0
0.364938	0.059527	0
0.349391	0.059666	0
0.333855	0.059716	0
0.318335	0.059673	0
0.302839	0.059536	0
0.287376	0.059301	0
0.271958	0.058961	0
0.256594	0.058509	0
0.241288	0.057935	0
0.226043	0.057232	0
0.210859	0.056392	0
0.195731	0.055406	0
0.180659	0.054266	0
0.165665	0.052961	0
0.150801	0.051485	0
0.136145	0.049835	0
0.121773	0.047996	0
0.10772	0.045946	0
0.093989	0.043666	0
0.080711	0.041169	0
0.068477	0.038586	0
0.0577	0.036001	0
0.048097	0.033341	0
0.039323	0.030538	0
0.031638	0.02776	0
0.025376	0.025257	0
0.020409	0.023076	0
0.016417	0.021043	0
0.0131	0.019013	0
0.010266	0.016904	0
0.007826	0.014708	0
0.005762	0.012475	0
0.004062	0.010269	0
0.002698	0.008149	0
0.001628	0.006147	0
0.000832	0.004278	0
0.000304	0.002519	0
0.000035	0.000831	0
0.000035	-0.000831	0
0.000304	-0.002519	0
0.000832	-0.004278	0
0.001628	-0.006147	0
0.002698	-0.008149	0
0.004062	-0.010269	0
0.005762	-0.012475	0
0.007826	-0.014708	0
0.010266	-0.016904	0
0.0131	-0.019013	0
0.016417	-0.021043	0
0.020409	-0.023076	0
0.025376	-0.025257	0
0.031638	-0.02776	0
0.039323	-0.030537	0
0.048097	-0.033341	0
0.0577	-0.036001	0
0.068477	-0.038586	0
0.080711	-0.041169	0
0.093988	-0.043666	0
0.10772	-0.045946	0
0.121773	-0.047996	0
0.136145	-0.049835	0
0.1508	-0.051485	0
0.165665	-0.052961	0
0.180659	-0.054266	0
0.195731	-0.055406	0
0.210858	-0.056392	0
0.226043	-0.057232	0
0.241288	-0.057935	0
0.256594	-0.058509	0
0.271958	-0.058961	0
0.287376	-0.059301	0
0.302838	-0.059536	0
0.318335	-0.059673	0
0.333855	-0.059716	0
0.349391	-0.059666	0
0.364938	-0.059527	0
0.380494	-0.059302	0
0.396058	-0.058992	0
0.411633	-0.0586	0
0.427222	-0.05813	0
0.442828	-0.057584	0
0.458452	-0.056967	0
0.474093	-0.05628	0
0.489746	-0.055527	0
0.505408	-0.054712	0
0.521073	-0.053837	0
0.536734	-0.052901	0
0.552388	-0.051906	0
0.568033	-0.05085	0
0.583671	-0.049733	0
0.599302	-0.048554	0
0.614933	-0.047314	0
0.630567	-0.046013	0
0.646209	-0.044656	0
0.661863	-0.043244	0
0.677531	-0.04178	0
0.693214	-0.040268	0
0.708913	-0.03871	0
0.724626	-0.037108	0
0.740349	-0.03546	0
0.756076	-0.033767	0
0.771797	-0.032031	0
0.787497	-0.030251	0
0.803163	-0.028428	0
0.818776	-0.026567	0
0.834329	-0.024668	0
0.849828	-0.022734	0
0.865294	-0.020763	0
0.88076	-0.018753	0
0.896275	-0.016699	0
0.911896	-0.014593	0
0.92758	-0.012442	0
0.942981	-0.010292	0
0.95756	-0.008222	0
0.97088	-0.006301	0
0.982827	-0.004553	0
0.993501	-0.002972	0
1	0	0
